%YAML 1.1
%TAG !u! tag:unity3d.com,2011:
--- !u!29 &1
OcclusionCullingSettings:
  m_ObjectHideFlags: 0
  serializedVersion: 2
  m_OcclusionBakeSettings:
    smallestOccluder: 5
    smallestHole: 0.25
    backfaceThreshold: 100
  m_SceneGUID: 00000000000000000000000000000000
  m_OcclusionCullingData: {fileID: 0}
--- !u!104 &2
RenderSettings:
  m_ObjectHideFlags: 0
  serializedVersion: 9
  m_Fog: 0
  m_FogColor: {r: 0.5, g: 0.5, b: 0.5, a: 1}
  m_FogMode: 3
  m_FogDensity: 0.01
  m_LinearFogStart: 0
  m_LinearFogEnd: 300
  m_AmbientSkyColor: {r: 0.212, g: 0.227, b: 0.259, a: 1}
  m_AmbientEquatorColor: {r: 0.114, g: 0.125, b: 0.133, a: 1}
  m_AmbientGroundColor: {r: 0.047, g: 0.043, b: 0.035, a: 1}
  m_AmbientIntensity: 1
  m_AmbientMode: 0
  m_SubtractiveShadowColor: {r: 0.42, g: 0.478, b: 0.627, a: 1}
  m_SkyboxMaterial: {fileID: 10304, guid: 0000000000000000f000000000000000, type: 0}
  m_HaloStrength: 0.5
  m_FlareStrength: 1
  m_FlareFadeSpeed: 3
  m_HaloTexture: {fileID: 0}
  m_SpotCookie: {fileID: 10001, guid: 0000000000000000e000000000000000, type: 0}
  m_DefaultReflectionMode: 0
  m_DefaultReflectionResolution: 128
  m_ReflectionBounces: 1
  m_ReflectionIntensity: 1
  m_CustomReflection: {fileID: 0}
  m_Sun: {fileID: 0}
  m_IndirectSpecularColor: {r: 0.44657844, g: 0.49641222, b: 0.57481694, a: 1}
  m_UseRadianceAmbientProbe: 0
--- !u!157 &3
LightmapSettings:
  m_ObjectHideFlags: 0
  serializedVersion: 11
  m_GIWorkflowMode: 0
  m_GISettings:
    serializedVersion: 2
    m_BounceScale: 1
    m_IndirectOutputScale: 1
    m_AlbedoBoost: 1
    m_EnvironmentLightingMode: 0
    m_EnableBakedLightmaps: 1
    m_EnableRealtimeLightmaps: 1
  m_LightmapEditorSettings:
    serializedVersion: 10
    m_Resolution: 2
    m_BakeResolution: 40
    m_AtlasSize: 1024
    m_AO: 0
    m_AOMaxDistance: 1
    m_CompAOExponent: 1
    m_CompAOExponentDirect: 0
    m_Padding: 2
    m_LightmapParameters: {fileID: 0}
    m_LightmapsBakeMode: 1
    m_TextureCompression: 1
    m_FinalGather: 0
    m_FinalGatherFiltering: 1
    m_FinalGatherRayCount: 256
    m_ReflectionCompression: 2
    m_MixedBakeMode: 2
    m_BakeBackend: 1
    m_PVRSampling: 1
    m_PVRDirectSampleCount: 32
    m_PVRSampleCount: 500
    m_PVRBounces: 2
    m_PVRFilterTypeDirect: 0
    m_PVRFilterTypeIndirect: 0
    m_PVRFilterTypeAO: 0
    m_PVRFilteringMode: 1
    m_PVRCulling: 1
    m_PVRFilteringGaussRadiusDirect: 1
    m_PVRFilteringGaussRadiusIndirect: 5
    m_PVRFilteringGaussRadiusAO: 2
    m_PVRFilteringAtrousPositionSigmaDirect: 0.5
    m_PVRFilteringAtrousPositionSigmaIndirect: 2
    m_PVRFilteringAtrousPositionSigmaAO: 1
    m_ShowResolutionOverlay: 1
  m_LightingDataAsset: {fileID: 0}
  m_UseShadowmask: 1
--- !u!196 &4
NavMeshSettings:
  serializedVersion: 2
  m_ObjectHideFlags: 0
  m_BuildSettings:
    serializedVersion: 2
    agentTypeID: 0
    agentRadius: 0.5
    agentHeight: 2
    agentSlope: 45
    agentClimb: 0.4
    ledgeDropHeight: 0
    maxJumpAcrossDistance: 0
    minRegionArea: 2
    manualCellSize: 0
    cellSize: 0.16666667
    manualTileSize: 0
    tileSize: 256
    accuratePlacement: 0
    debug:
      m_Flags: 0
  m_NavMeshData: {fileID: 0}
--- !u!1 &141836229
GameObject:
  m_ObjectHideFlags: 0
  m_CorrespondingSourceObject: {fileID: 0}
  m_PrefabInstance: {fileID: 0}
  m_PrefabAsset: {fileID: 0}
  serializedVersion: 6
  m_Component:
  - component: {fileID: 141836232}
  - component: {fileID: 141836231}
  - component: {fileID: 141836230}
  m_Layer: 0
  m_Name: Camera
  m_TagString: Untagged
  m_Icon: {fileID: 0}
  m_NavMeshLayer: 0
  m_StaticEditorFlags: 0
  m_IsActive: 1
--- !u!81 &141836230
AudioListener:
  m_ObjectHideFlags: 0
  m_CorrespondingSourceObject: {fileID: 0}
  m_PrefabInstance: {fileID: 0}
  m_PrefabAsset: {fileID: 0}
  m_GameObject: {fileID: 141836229}
  m_Enabled: 1
--- !u!20 &141836231
Camera:
  m_ObjectHideFlags: 0
  m_CorrespondingSourceObject: {fileID: 0}
  m_PrefabInstance: {fileID: 0}
  m_PrefabAsset: {fileID: 0}
  m_GameObject: {fileID: 141836229}
  m_Enabled: 1
  serializedVersion: 2
  m_ClearFlags: 2
  m_BackGroundColor: {r: 0.38576013, g: 0.11747954, b: 0.4528302, a: 0}
  m_projectionMatrixMode: 1
  m_SensorSize: {x: 36, y: 24}
  m_LensShift: {x: 0, y: 0}
  m_GateFitMode: 2
  m_FocalLength: 50
  m_NormalizedViewPortRect:
    serializedVersion: 2
    x: 0
    y: 0
    width: 1
    height: 1
  near clip plane: 0.3
  far clip plane: 1000
  field of view: 60
  orthographic: 0
  orthographic size: 5
  m_Depth: 0
  m_CullingMask:
    serializedVersion: 2
    m_Bits: 4294967295
  m_RenderingPath: -1
  m_TargetTexture: {fileID: 0}
  m_TargetDisplay: 0
  m_TargetEye: 3
  m_HDR: 1
  m_AllowMSAA: 1
  m_AllowDynamicResolution: 0
  m_ForceIntoRT: 0
  m_OcclusionCulling: 1
  m_StereoConvergence: 10
  m_StereoSeparation: 0.022
--- !u!4 &141836232
Transform:
  m_ObjectHideFlags: 0
  m_CorrespondingSourceObject: {fileID: 0}
  m_PrefabInstance: {fileID: 0}
  m_PrefabAsset: {fileID: 0}
  m_GameObject: {fileID: 141836229}
  m_LocalRotation: {x: -0.01221705, y: 0, z: 0, w: 0.9999254}
  m_LocalPosition: {x: 63.6, y: 710.72, z: -414.53}
  m_LocalScale: {x: 1, y: 1, z: 1}
  m_Children: []
  m_Father: {fileID: 0}
  m_RootOrder: 5
  m_LocalEulerAnglesHint: {x: -1.4, y: 0, z: 0}
--- !u!1001 &239924100
PrefabInstance:
  m_ObjectHideFlags: 0
  serializedVersion: 2
  m_Modification:
    m_TransformParent: {fileID: 0}
    m_Modifications:
    - target: {fileID: 6335412138259239127, guid: 1d1c9e2ce99b2ef4db59eb018e692ecf,
        type: 3}
      propertyPath: m_Name
      value: Road_1
      objectReference: {fileID: 0}
    - target: {fileID: 7845556877709237797, guid: 1d1c9e2ce99b2ef4db59eb018e692ecf,
        type: 3}
      propertyPath: m_LocalPosition.x
      value: 63.8
      objectReference: {fileID: 0}
    - target: {fileID: 7845556877709237797, guid: 1d1c9e2ce99b2ef4db59eb018e692ecf,
        type: 3}
      propertyPath: m_LocalPosition.y
      value: 709.5396
      objectReference: {fileID: 0}
    - target: {fileID: 7845556877709237797, guid: 1d1c9e2ce99b2ef4db59eb018e692ecf,
        type: 3}
      propertyPath: m_LocalPosition.z
      value: -402.1
      objectReference: {fileID: 0}
    - target: {fileID: 7845556877709237797, guid: 1d1c9e2ce99b2ef4db59eb018e692ecf,
        type: 3}
      propertyPath: m_LocalRotation.x
      value: 0
      objectReference: {fileID: 0}
    - target: {fileID: 7845556877709237797, guid: 1d1c9e2ce99b2ef4db59eb018e692ecf,
        type: 3}
      propertyPath: m_LocalRotation.y
      value: 0
      objectReference: {fileID: 0}
    - target: {fileID: 7845556877709237797, guid: 1d1c9e2ce99b2ef4db59eb018e692ecf,
        type: 3}
      propertyPath: m_LocalRotation.z
      value: 0
      objectReference: {fileID: 0}
    - target: {fileID: 7845556877709237797, guid: 1d1c9e2ce99b2ef4db59eb018e692ecf,
        type: 3}
      propertyPath: m_LocalRotation.w
      value: 1
      objectReference: {fileID: 0}
    - target: {fileID: 7845556877709237797, guid: 1d1c9e2ce99b2ef4db59eb018e692ecf,
        type: 3}
      propertyPath: m_RootOrder
      value: 2
      objectReference: {fileID: 0}
    - target: {fileID: 7845556877709237797, guid: 1d1c9e2ce99b2ef4db59eb018e692ecf,
        type: 3}
      propertyPath: m_LocalEulerAnglesHint.x
      value: 0
      objectReference: {fileID: 0}
    - target: {fileID: 7845556877709237797, guid: 1d1c9e2ce99b2ef4db59eb018e692ecf,
        type: 3}
      propertyPath: m_LocalEulerAnglesHint.y
      value: 0
      objectReference: {fileID: 0}
    - target: {fileID: 7845556877709237797, guid: 1d1c9e2ce99b2ef4db59eb018e692ecf,
        type: 3}
      propertyPath: m_LocalEulerAnglesHint.z
      value: 0
      objectReference: {fileID: 0}
    m_RemovedComponents: []
  m_SourcePrefab: {fileID: 100100000, guid: 1d1c9e2ce99b2ef4db59eb018e692ecf, type: 3}
--- !u!1001 &672680538
PrefabInstance:
  m_ObjectHideFlags: 0
  serializedVersion: 2
  m_Modification:
    m_TransformParent: {fileID: 0}
    m_Modifications:
    - target: {fileID: 6223298398992822572, guid: 96cb33486a7c5a8498c7bddf71d10b44,
        type: 3}
      propertyPath: m_Name
      value: Road_2 (2)
      objectReference: {fileID: 0}
    - target: {fileID: 7878901621158182878, guid: 96cb33486a7c5a8498c7bddf71d10b44,
        type: 3}
      propertyPath: m_LocalPosition.x
      value: 53.24
      objectReference: {fileID: 0}
    - target: {fileID: 7878901621158182878, guid: 96cb33486a7c5a8498c7bddf71d10b44,
        type: 3}
      propertyPath: m_LocalPosition.y
      value: 709.5396
      objectReference: {fileID: 0}
    - target: {fileID: 7878901621158182878, guid: 96cb33486a7c5a8498c7bddf71d10b44,
        type: 3}
      propertyPath: m_LocalPosition.z
      value: -391.35
      objectReference: {fileID: 0}
    - target: {fileID: 7878901621158182878, guid: 96cb33486a7c5a8498c7bddf71d10b44,
        type: 3}
      propertyPath: m_LocalRotation.x
      value: 0
      objectReference: {fileID: 0}
    - target: {fileID: 7878901621158182878, guid: 96cb33486a7c5a8498c7bddf71d10b44,
        type: 3}
      propertyPath: m_LocalRotation.y
      value: 0
      objectReference: {fileID: 0}
    - target: {fileID: 7878901621158182878, guid: 96cb33486a7c5a8498c7bddf71d10b44,
        type: 3}
      propertyPath: m_LocalRotation.z
      value: 0
      objectReference: {fileID: 0}
    - target: {fileID: 7878901621158182878, guid: 96cb33486a7c5a8498c7bddf71d10b44,
        type: 3}
      propertyPath: m_LocalRotation.w
      value: 1
      objectReference: {fileID: 0}
    - target: {fileID: 7878901621158182878, guid: 96cb33486a7c5a8498c7bddf71d10b44,
        type: 3}
      propertyPath: m_RootOrder
      value: 7
      objectReference: {fileID: 0}
    - target: {fileID: 7878901621158182878, guid: 96cb33486a7c5a8498c7bddf71d10b44,
        type: 3}
      propertyPath: m_LocalEulerAnglesHint.x
      value: 0
      objectReference: {fileID: 0}
    - target: {fileID: 7878901621158182878, guid: 96cb33486a7c5a8498c7bddf71d10b44,
        type: 3}
      propertyPath: m_LocalEulerAnglesHint.y
      value: 0
      objectReference: {fileID: 0}
    - target: {fileID: 7878901621158182878, guid: 96cb33486a7c5a8498c7bddf71d10b44,
        type: 3}
      propertyPath: m_LocalEulerAnglesHint.z
      value: 0
      objectReference: {fileID: 0}
    m_RemovedComponents: []
  m_SourcePrefab: {fileID: 100100000, guid: 96cb33486a7c5a8498c7bddf71d10b44, type: 3}
--- !u!1001 &1195168306
PrefabInstance:
  m_ObjectHideFlags: 0
  serializedVersion: 2
  m_Modification:
    m_TransformParent: {fileID: 0}
    m_Modifications:
    - target: {fileID: 6223298398992822572, guid: 96cb33486a7c5a8498c7bddf71d10b44,
        type: 3}
      propertyPath: m_Name
      value: Road_2
      objectReference: {fileID: 0}
    - target: {fileID: 7878901621158182878, guid: 96cb33486a7c5a8498c7bddf71d10b44,
        type: 3}
      propertyPath: m_LocalPosition.x
      value: 63.8
      objectReference: {fileID: 0}
    - target: {fileID: 7878901621158182878, guid: 96cb33486a7c5a8498c7bddf71d10b44,
        type: 3}
      propertyPath: m_LocalPosition.y
      value: 709.5396
      objectReference: {fileID: 0}
    - target: {fileID: 7878901621158182878, guid: 96cb33486a7c5a8498c7bddf71d10b44,
        type: 3}
      propertyPath: m_LocalPosition.z
      value: -379.65
      objectReference: {fileID: 0}
    - target: {fileID: 7878901621158182878, guid: 96cb33486a7c5a8498c7bddf71d10b44,
        type: 3}
      propertyPath: m_LocalRotation.x
      value: 0
      objectReference: {fileID: 0}
    - target: {fileID: 7878901621158182878, guid: 96cb33486a7c5a8498c7bddf71d10b44,
        type: 3}
      propertyPath: m_LocalRotation.y
      value: 0
      objectReference: {fileID: 0}
    - target: {fileID: 7878901621158182878, guid: 96cb33486a7c5a8498c7bddf71d10b44,
        type: 3}
      propertyPath: m_LocalRotation.z
      value: 0
      objectReference: {fileID: 0}
    - target: {fileID: 7878901621158182878, guid: 96cb33486a7c5a8498c7bddf71d10b44,
        type: 3}
      propertyPath: m_LocalRotation.w
      value: 1
      objectReference: {fileID: 0}
    - target: {fileID: 7878901621158182878, guid: 96cb33486a7c5a8498c7bddf71d10b44,
        type: 3}
      propertyPath: m_RootOrder
      value: 4
      objectReference: {fileID: 0}
    - target: {fileID: 7878901621158182878, guid: 96cb33486a7c5a8498c7bddf71d10b44,
        type: 3}
      propertyPath: m_LocalEulerAnglesHint.x
      value: 0
      objectReference: {fileID: 0}
    - target: {fileID: 7878901621158182878, guid: 96cb33486a7c5a8498c7bddf71d10b44,
        type: 3}
      propertyPath: m_LocalEulerAnglesHint.y
      value: 0
      objectReference: {fileID: 0}
    - target: {fileID: 7878901621158182878, guid: 96cb33486a7c5a8498c7bddf71d10b44,
        type: 3}
      propertyPath: m_LocalEulerAnglesHint.z
      value: 0
      objectReference: {fileID: 0}
    m_RemovedComponents: []
  m_SourcePrefab: {fileID: 100100000, guid: 96cb33486a7c5a8498c7bddf71d10b44, type: 3}
--- !u!1001 &1484293161
PrefabInstance:
  m_ObjectHideFlags: 0
  serializedVersion: 2
  m_Modification:
    m_TransformParent: {fileID: 0}
    m_Modifications:
    - target: {fileID: 6223298398992822572, guid: 96cb33486a7c5a8498c7bddf71d10b44,
        type: 3}
      propertyPath: m_Name
      value: Road_2 (1)
      objectReference: {fileID: 0}
    - target: {fileID: 7878901621158182878, guid: 96cb33486a7c5a8498c7bddf71d10b44,
        type: 3}
      propertyPath: m_LocalPosition.x
      value: 73.29
      objectReference: {fileID: 0}
    - target: {fileID: 7878901621158182878, guid: 96cb33486a7c5a8498c7bddf71d10b44,
        type: 3}
      propertyPath: m_LocalPosition.y
      value: 709.5396
      objectReference: {fileID: 0}
    - target: {fileID: 7878901621158182878, guid: 96cb33486a7c5a8498c7bddf71d10b44,
        type: 3}
      propertyPath: m_LocalPosition.z
      value: -391.35
      objectReference: {fileID: 0}
    - target: {fileID: 7878901621158182878, guid: 96cb33486a7c5a8498c7bddf71d10b44,
        type: 3}
      propertyPath: m_LocalRotation.x
      value: 0
      objectReference: {fileID: 0}
    - target: {fileID: 7878901621158182878, guid: 96cb33486a7c5a8498c7bddf71d10b44,
        type: 3}
      propertyPath: m_LocalRotation.y
      value: 0
      objectReference: {fileID: 0}
    - target: {fileID: 7878901621158182878, guid: 96cb33486a7c5a8498c7bddf71d10b44,
        type: 3}
      propertyPath: m_LocalRotation.z
      value: 0
      objectReference: {fileID: 0}
    - target: {fileID: 7878901621158182878, guid: 96cb33486a7c5a8498c7bddf71d10b44,
        type: 3}
      propertyPath: m_LocalRotation.w
      value: 1
      objectReference: {fileID: 0}
    - target: {fileID: 7878901621158182878, guid: 96cb33486a7c5a8498c7bddf71d10b44,
        type: 3}
      propertyPath: m_RootOrder
      value: 6
      objectReference: {fileID: 0}
    - target: {fileID: 7878901621158182878, guid: 96cb33486a7c5a8498c7bddf71d10b44,
        type: 3}
      propertyPath: m_LocalEulerAnglesHint.x
      value: 0
      objectReference: {fileID: 0}
    - target: {fileID: 7878901621158182878, guid: 96cb33486a7c5a8498c7bddf71d10b44,
        type: 3}
      propertyPath: m_LocalEulerAnglesHint.y
      value: 0
      objectReference: {fileID: 0}
    - target: {fileID: 7878901621158182878, guid: 96cb33486a7c5a8498c7bddf71d10b44,
        type: 3}
      propertyPath: m_LocalEulerAnglesHint.z
      value: 0
      objectReference: {fileID: 0}
    m_RemovedComponents: []
  m_SourcePrefab: {fileID: 100100000, guid: 96cb33486a7c5a8498c7bddf71d10b44, type: 3}
--- !u!1001 &1638696299
PrefabInstance:
  m_ObjectHideFlags: 0
  serializedVersion: 2
  m_Modification:
    m_TransformParent: {fileID: 0}
    m_Modifications:
    - target: {fileID: 6335412138259239127, guid: 1d1c9e2ce99b2ef4db59eb018e692ecf,
        type: 3}
      propertyPath: m_Name
      value: Road_1 (1)
      objectReference: {fileID: 0}
    - target: {fileID: 7845556877709237797, guid: 1d1c9e2ce99b2ef4db59eb018e692ecf,
        type: 3}
      propertyPath: m_LocalPosition.x
      value: 63.8
      objectReference: {fileID: 0}
    - target: {fileID: 7845556877709237797, guid: 1d1c9e2ce99b2ef4db59eb018e692ecf,
        type: 3}
      propertyPath: m_LocalPosition.y
      value: 709.5396
      objectReference: {fileID: 0}
    - target: {fileID: 7845556877709237797, guid: 1d1c9e2ce99b2ef4db59eb018e692ecf,
        type: 3}
      propertyPath: m_LocalPosition.z
      value: -390.97
      objectReference: {fileID: 0}
    - target: {fileID: 7845556877709237797, guid: 1d1c9e2ce99b2ef4db59eb018e692ecf,
        type: 3}
      propertyPath: m_LocalRotation.x
      value: 0
      objectReference: {fileID: 0}
    - target: {fileID: 7845556877709237797, guid: 1d1c9e2ce99b2ef4db59eb018e692ecf,
        type: 3}
      propertyPath: m_LocalRotation.y
      value: 0
      objectReference: {fileID: 0}
    - target: {fileID: 7845556877709237797, guid: 1d1c9e2ce99b2ef4db59eb018e692ecf,
        type: 3}
      propertyPath: m_LocalRotation.z
      value: 0
      objectReference: {fileID: 0}
    - target: {fileID: 7845556877709237797, guid: 1d1c9e2ce99b2ef4db59eb018e692ecf,
        type: 3}
      propertyPath: m_LocalRotation.w
      value: 1
      objectReference: {fileID: 0}
    - target: {fileID: 7845556877709237797, guid: 1d1c9e2ce99b2ef4db59eb018e692ecf,
        type: 3}
      propertyPath: m_RootOrder
      value: 3
      objectReference: {fileID: 0}
    - target: {fileID: 7845556877709237797, guid: 1d1c9e2ce99b2ef4db59eb018e692ecf,
        type: 3}
      propertyPath: m_LocalEulerAnglesHint.x
      value: 0
      objectReference: {fileID: 0}
    - target: {fileID: 7845556877709237797, guid: 1d1c9e2ce99b2ef4db59eb018e692ecf,
        type: 3}
      propertyPath: m_LocalEulerAnglesHint.y
      value: 0
      objectReference: {fileID: 0}
    - target: {fileID: 7845556877709237797, guid: 1d1c9e2ce99b2ef4db59eb018e692ecf,
        type: 3}
      propertyPath: m_LocalEulerAnglesHint.z
      value: 0
      objectReference: {fileID: 0}
    m_RemovedComponents: []
  m_SourcePrefab: {fileID: 100100000, guid: 1d1c9e2ce99b2ef4db59eb018e692ecf, type: 3}
--- !u!1001 &1726631298
PrefabInstance:
  m_ObjectHideFlags: 0
  serializedVersion: 2
  m_Modification:
    m_TransformParent: {fileID: 0}
    m_Modifications:
    - target: {fileID: 100066, guid: d11271f917495424a810bb5554cb993b, type: 3}
      propertyPath: m_Name
      value: SciFiEngineer
      objectReference: {fileID: 0}
    - target: {fileID: 400066, guid: d11271f917495424a810bb5554cb993b, type: 3}
      propertyPath: m_LocalPosition.x
      value: 63.88277
      objectReference: {fileID: 0}
    - target: {fileID: 400066, guid: d11271f917495424a810bb5554cb993b, type: 3}
      propertyPath: m_LocalPosition.y
      value: 708.9046
      objectReference: {fileID: 0}
    - target: {fileID: 400066, guid: d11271f917495424a810bb5554cb993b, type: 3}
      propertyPath: m_LocalPosition.z
      value: -406.861
      objectReference: {fileID: 0}
    - target: {fileID: 400066, guid: d11271f917495424a810bb5554cb993b, type: 3}
      propertyPath: m_LocalRotation.x
      value: 0
      objectReference: {fileID: 0}
    - target: {fileID: 400066, guid: d11271f917495424a810bb5554cb993b, type: 3}
      propertyPath: m_LocalRotation.y
      value: 1
      objectReference: {fileID: 0}
    - target: {fileID: 400066, guid: d11271f917495424a810bb5554cb993b, type: 3}
      propertyPath: m_LocalRotation.z
      value: 0
      objectReference: {fileID: 0}
    - target: {fileID: 400066, guid: d11271f917495424a810bb5554cb993b, type: 3}
      propertyPath: m_LocalRotation.w
      value: 0
      objectReference: {fileID: 0}
    - target: {fileID: 400066, guid: d11271f917495424a810bb5554cb993b, type: 3}
      propertyPath: m_RootOrder
      value: 1
      objectReference: {fileID: 0}
    - target: {fileID: 400066, guid: d11271f917495424a810bb5554cb993b, type: 3}
      propertyPath: m_LocalEulerAnglesHint.x
      value: 0
      objectReference: {fileID: 0}
    - target: {fileID: 400066, guid: d11271f917495424a810bb5554cb993b, type: 3}
      propertyPath: m_LocalEulerAnglesHint.y
      value: 180
      objectReference: {fileID: 0}
    - target: {fileID: 400066, guid: d11271f917495424a810bb5554cb993b, type: 3}
      propertyPath: m_LocalEulerAnglesHint.z
      value: 0
      objectReference: {fileID: 0}
    - target: {fileID: 400066, guid: d11271f917495424a810bb5554cb993b, type: 3}
      propertyPath: m_LocalScale.x
      value: 4
      objectReference: {fileID: 0}
    - target: {fileID: 400066, guid: d11271f917495424a810bb5554cb993b, type: 3}
      propertyPath: m_LocalScale.y
      value: 4
      objectReference: {fileID: 0}
    - target: {fileID: 400066, guid: d11271f917495424a810bb5554cb993b, type: 3}
      propertyPath: m_LocalScale.z
      value: 4
      objectReference: {fileID: 0}
    m_RemovedComponents: []
  m_SourcePrefab: {fileID: 100100000, guid: d11271f917495424a810bb5554cb993b, type: 3}
--- !u!1 &1950350979
GameObject:
  m_ObjectHideFlags: 0
  m_CorrespondingSourceObject: {fileID: 0}
  m_PrefabInstance: {fileID: 0}
  m_PrefabAsset: {fileID: 0}
  serializedVersion: 6
  m_Component:
  - component: {fileID: 1950350981}
  - component: {fileID: 1950350980}
  m_Layer: 0
  m_Name: Directional Light
  m_TagString: Untagged
  m_Icon: {fileID: 0}
  m_NavMeshLayer: 0
  m_StaticEditorFlags: 0
  m_IsActive: 1
--- !u!108 &1950350980
Light:
  m_ObjectHideFlags: 0
  m_CorrespondingSourceObject: {fileID: 0}
  m_PrefabInstance: {fileID: 0}
  m_PrefabAsset: {fileID: 0}
  m_GameObject: {fileID: 1950350979}
  m_Enabled: 1
  serializedVersion: 8
  m_Type: 1
  m_Color: {r: 1, g: 0.95686275, b: 0.8392157, a: 1}
  m_Intensity: 1
  m_Range: 10
  m_SpotAngle: 30
  m_CookieSize: 10
  m_Shadows:
    m_Type: 2
    m_Resolution: -1
    m_CustomResolution: -1
    m_Strength: 1
    m_Bias: 0.05
    m_NormalBias: 0.4
    m_NearPlane: 0.2
  m_Cookie: {fileID: 0}
  m_DrawHalo: 0
  m_Flare: {fileID: 0}
  m_RenderMode: 0
  m_CullingMask:
    serializedVersion: 2
    m_Bits: 4294967295
  m_Lightmapping: 4
  m_LightShadowCasterMode: 0
  m_AreaSize: {x: 1, y: 1}
  m_BounceIntensity: 1
  m_ColorTemperature: 6570
  m_UseColorTemperature: 0
  m_ShadowRadius: 0
  m_ShadowAngle: 0
--- !u!4 &1950350981
Transform:
  m_ObjectHideFlags: 0
  m_CorrespondingSourceObject: {fileID: 0}
  m_PrefabInstance: {fileID: 0}
  m_PrefabAsset: {fileID: 0}
  m_GameObject: {fileID: 1950350979}
  m_LocalRotation: {x: 0.40821788, y: -0.23456968, z: 0.10938163, w: 0.8754261}
  m_LocalPosition: {x: 0, y: 3, z: 0}
  m_LocalScale: {x: 1, y: 1, z: 1}
  m_Children: []
  m_Father: {fileID: 0}
  m_RootOrder: 0
  m_LocalEulerAnglesHint: {x: 50, y: -30, z: 0}
