%YAML 1.1
%TAG !u! tag:unity3d.com,2011:
--- !u!1045 &1
EditorBuildSettings:
  m_ObjectHideFlags: 0
  serializedVersion: 2
  m_Scenes:
  - enabled: 0
    path: Assets/menu.unity
    guid: 8cf5819cb18114c4f85aea0640004265
  - enabled: 1
    path: Assets/scene.unity
    guid: bbb75bdad4adac544844c8ee1c105439
  m_configObjects: {}
